CPU.vcd
$date
	Tue Jan  5 21:39:19 2021
$end
$version
	Icarus Verilog
$end
$timescale
	1s
$end
$scope module testbench $end
$var wire 256 ! mem_cpu_data [255:0] $end
$var wire 1 " mem_cpu_ack $end
$var wire 1 # cpu_mem_write $end
$var wire 1 $ cpu_mem_enable $end
$var wire 256 % cpu_mem_data [255:0] $end
$var wire 32 & cpu_mem_addr [31:0] $end
$var reg 1 ' Clk $end
$var reg 1 ( Reset $end
$var reg 1 ) Start $end
$var reg 27 * address [26:0] $end
$var reg 1 + flag $end
$var reg 4 , index [3:0] $end
$var reg 25 - tag [24:0] $end
$var integer 32 . counter [31:0] $end
$var integer 32 / i [31:0] $end
$var integer 32 0 j [31:0] $end
$var integer 32 1 outfile [31:0] $end
$var integer 32 2 outfile2 [31:0] $end
$scope module CPU $end
$var wire 1 ' clk_i $end
$var wire 1 ( rst_i $end
$var wire 1 ) start_i $end
$var wire 1 # mem_write_o $end
$var wire 1 $ mem_enable_o $end
$var wire 256 3 mem_data_o [255:0] $end
$var wire 256 4 mem_data_i [255:0] $end
$var wire 32 5 mem_addr_o [31:0] $end
$var wire 1 " mem_ack_i $end
$scope module ALU $end
$var wire 32 6 data2_i [31:0] $end
$var wire 32 7 data1_i [31:0] $end
$var wire 3 8 ALUCtrl_i [2:0] $end
$var reg 32 9 data_o [31:0] $end
$upscope $end
$scope module ALU_Control $end
$var wire 10 : funct_i [9:0] $end
$var wire 2 ; ALUOp_i [1:0] $end
$var reg 3 < ALUCtrl_o [2:0] $end
$upscope $end
$scope module Add_PC $end
$var wire 32 = data2_i [31:0] $end
$var wire 32 > data_o [31:0] $end
$var wire 32 ? data1_i [31:0] $end
$upscope $end
$scope module Add_PC_Branch $end
$var wire 32 @ data1_i [31:0] $end
$var wire 32 A data_o [31:0] $end
$var wire 32 B data2_i [31:0] $end
$upscope $end
$scope module Control $end
$var wire 7 C Op_i [6:0] $end
$var wire 1 D NoOp_i $end
$var reg 2 E ALUOp_o [1:0] $end
$var reg 1 F ALUSrc_o $end
$var reg 1 G Branch_o $end
$var reg 1 H MemRead_o $end
$var reg 1 I MemWrite_o $end
$var reg 1 J MemtoReg_o $end
$var reg 1 K RegWrite_o $end
$upscope $end
$scope module EXMEM $end
$var wire 32 L ALUResult_i [31:0] $end
$var wire 1 ' clk_i $end
$var wire 1 M RegWrite_i $end
$var wire 5 N RDaddr_i [4:0] $end
$var wire 1 O MemtoReg_i $end
$var wire 1 P MemWrite_i $end
$var wire 1 Q MemStall_i $end
$var wire 1 R MemRead_i $end
$var wire 32 S MUX_B_i [31:0] $end
$var reg 32 T ALUResult_o [31:0] $end
$var reg 32 U MUX_B_o [31:0] $end
$var reg 1 V MemRead_o $end
$var reg 1 W MemWrite_o $end
$var reg 1 X MemtoReg_o $end
$var reg 5 Y RDaddr_o [4:0] $end
$var reg 1 Z RegWrite_o $end
$upscope $end
$scope module Forward_Unit $end
$var wire 5 [ MemRd_i [4:0] $end
$var wire 1 Z MemRegWrite_i $end
$var wire 1 \ WBRegWrite_i $end
$var wire 5 ] WBRd_i [4:0] $end
$var wire 5 ^ EXRs2_i [4:0] $end
$var wire 5 _ EXRs1_i [4:0] $end
$var reg 2 ` ForwardA_o [1:0] $end
$var reg 2 a ForwardB_o [1:0] $end
$upscope $end
$scope module Hazard_Detection $end
$var wire 5 b data3_i [4:0] $end
$var wire 5 c data2_i [4:0] $end
$var wire 5 d data1_i [4:0] $end
$var wire 1 R MemRead_i $end
$var reg 1 D NoOp_o $end
$var reg 1 e PCWrite_o $end
$var reg 1 f Stall_o $end
$upscope $end
$scope module IDEX $end
$var wire 2 g ALUOp_i [1:0] $end
$var wire 1 F ALUSrc_i $end
$var wire 1 H MemRead_i $end
$var wire 1 I MemWrite_i $end
$var wire 1 J MemtoReg_i $end
$var wire 1 K RegWrite_i $end
$var wire 1 ' clk_i $end
$var wire 10 h funct_i [9:0] $end
$var wire 32 i imm_i [31:0] $end
$var wire 32 j data2_i [31:0] $end
$var wire 32 k data1_i [31:0] $end
$var wire 5 l RS2addr_i [4:0] $end
$var wire 5 m RS1addr_i [4:0] $end
$var wire 5 n RDaddr_i [4:0] $end
$var wire 1 Q MemStall_i $end
$var reg 2 o ALUOp_o [1:0] $end
$var reg 1 p ALUSrc_o $end
$var reg 1 R MemRead_o $end
$var reg 1 P MemWrite_o $end
$var reg 1 O MemtoReg_o $end
$var reg 5 q RDaddr_o [4:0] $end
$var reg 5 r RS1addr_o [4:0] $end
$var reg 5 s RS2addr_o [4:0] $end
$var reg 1 M RegWrite_o $end
$var reg 32 t data1_o [31:0] $end
$var reg 32 u data2_o [31:0] $end
$var reg 10 v funct_o [9:0] $end
$var reg 32 w imm_o [31:0] $end
$upscope $end
$scope module IFID $end
$var wire 1 f Stall_i $end
$var wire 1 ' clk_i $end
$var wire 32 x instr_i [31:0] $end
$var wire 32 y PC_i [31:0] $end
$var wire 1 Q MemStall_i $end
$var wire 1 z Flush_i $end
$var reg 32 { PC_o [31:0] $end
$var reg 32 | instr_o [31:0] $end
$upscope $end
$scope module If_Branch $end
$var wire 1 G Branch_i $end
$var wire 32 } data2_i [31:0] $end
$var wire 32 ~ data1_i [31:0] $end
$var reg 1 !" compare $end
$var reg 1 z data_o $end
$upscope $end
$scope module Imm_Gen $end
$var wire 32 "" data_i [31:0] $end
$var wire 7 #" opcode [6:0] $end
$var wire 12 $" imme [11:0] $end
$var wire 32 %" data_o [31:0] $end
$upscope $end
$scope module Instruction_Memory $end
$var wire 32 &" instr_o [31:0] $end
$var wire 32 '" addr_i [31:0] $end
$upscope $end
$scope module MEMWB $end
$var wire 32 (" ALUResult_i [31:0] $end
$var wire 1 X MemtoReg_i $end
$var wire 5 )" RDaddr_i [4:0] $end
$var wire 1 Z RegWrite_i $end
$var wire 1 ' clk_i $end
$var wire 32 *" ReadData_i [31:0] $end
$var wire 1 Q MemStall_i $end
$var reg 32 +" ALUResult_o [31:0] $end
$var reg 1 ," MemtoReg_o $end
$var reg 5 -" RDaddr_o [4:0] $end
$var reg 32 ." ReadData_o [31:0] $end
$var reg 1 \ RegWrite_o $end
$upscope $end
$scope module MUX_A $end
$var wire 32 /" data0_i [31:0] $end
$var wire 32 0" data2_i [31:0] $end
$var wire 2 1" forward_i [1:0] $end
$var wire 32 2" data1_i [31:0] $end
$var reg 32 3" data_o [31:0] $end
$upscope $end
$scope module MUX_ALUSrc $end
$var wire 32 4" data2_i [31:0] $end
$var wire 1 p select_i $end
$var wire 32 5" data1_i [31:0] $end
$var reg 32 6" data_o [31:0] $end
$upscope $end
$scope module MUX_B $end
$var wire 32 7" data0_i [31:0] $end
$var wire 32 8" data2_i [31:0] $end
$var wire 2 9" forward_i [1:0] $end
$var wire 32 :" data1_i [31:0] $end
$var reg 32 ;" data_o [31:0] $end
$upscope $end
$scope module MUX_Mem2Reg $end
$var wire 32 <" data1_i [31:0] $end
$var wire 32 =" data2_i [31:0] $end
$var wire 1 ," select_i $end
$var reg 32 >" data_o [31:0] $end
$upscope $end
$scope module MUX_PCSource $end
$var wire 32 ?" data1_i [31:0] $end
$var wire 32 @" data2_i [31:0] $end
$var wire 1 z select_i $end
$var reg 32 A" data_o [31:0] $end
$upscope $end
$scope module PC $end
$var wire 1 e PCWrite_i $end
$var wire 1 ' clk_i $end
$var wire 32 B" pc_i [31:0] $end
$var wire 1 ( rst_i $end
$var wire 1 ) start_i $end
$var wire 1 Q stall_i $end
$var reg 32 C" pc_o [31:0] $end
$upscope $end
$scope module Registers $end
$var wire 5 D" RDaddr_i [4:0] $end
$var wire 32 E" RDdata_i [31:0] $end
$var wire 5 F" RS1addr_i [4:0] $end
$var wire 5 G" RS2addr_i [4:0] $end
$var wire 1 \ RegWrite_i $end
$var wire 1 ' clk_i $end
$var wire 32 H" RS2data_o [31:0] $end
$var wire 32 I" RS1data_o [31:0] $end
$upscope $end
$scope module dcache $end
$var wire 1 J" cache_dirty $end
$var wire 1 K" cache_sram_enable $end
$var wire 4 L" cache_sram_index [3:0] $end
$var wire 1 M" cache_sram_write $end
$var wire 1 ' clk_i $end
$var wire 1 V cpu_MemRead_i $end
$var wire 1 W cpu_MemWrite_i $end
$var wire 32 N" cpu_addr_i [31:0] $end
$var wire 32 O" cpu_data_i [31:0] $end
$var wire 32 P" cpu_data_o [31:0] $end
$var wire 1 Q" cpu_req $end
$var wire 1 Q cpu_stall_o $end
$var wire 256 R" mem_data_o [255:0] $end
$var wire 1 $ mem_enable_o $end
$var wire 1 # mem_write_o $end
$var wire 1 ( rst_i $end
$var wire 1 S" write_hit $end
$var wire 1 T" sram_valid $end
$var wire 22 U" sram_tag [21:0] $end
$var wire 1 V" sram_dirty $end
$var wire 25 W" sram_cache_tag [24:0] $end
$var wire 256 X" sram_cache_data [255:0] $end
$var wire 256 Y" r_hit_data [255:0] $end
$var wire 256 Z" mem_data_i [255:0] $end
$var wire 32 [" mem_addr_o [31:0] $end
$var wire 1 " mem_ack_i $end
$var wire 1 \" hit $end
$var wire 23 ]" cpu_tag [22:0] $end
$var wire 5 ^" cpu_offset [4:0] $end
$var wire 4 _" cpu_index [3:0] $end
$var wire 25 `" cache_sram_tag [24:0] $end
$var wire 256 a" cache_sram_data [255:0] $end
$var reg 1 b" cache_write $end
$var reg 32 c" cpu_data [31:0] $end
$var reg 1 d" mem_enable $end
$var reg 1 e" mem_write $end
$var reg 3 f" state [2:0] $end
$var reg 256 g" w_hit_data [255:0] $end
$var reg 1 h" write_back $end
$var integer 32 i" start [31:0] $end
$scope module dcache_sram $end
$var wire 4 j" addr_i [3:0] $end
$var wire 1 ' clk_i $end
$var wire 256 k" data_i [255:0] $end
$var wire 1 K" enable_i $end
$var wire 1 ( rst_i $end
$var wire 25 l" tag_i [24:0] $end
$var wire 1 M" write_i $end
$var reg 256 m" data_o [255:0] $end
$var reg 1 n" hit0 $end
$var reg 1 o" hit1 $end
$var reg 1 \" hit_o $end
$var reg 25 p" tag_o [24:0] $end
$var integer 32 q" i [31:0] $end
$var integer 32 r" j [31:0] $end
$upscope $end
$upscope $end
$upscope $end
$scope module Data_Memory $end
$var wire 1 " ack_o $end
$var wire 32 s" addr_i [31:0] $end
$var wire 1 ' clk_i $end
$var wire 256 t" data_i [255:0] $end
$var wire 256 u" data_o [255:0] $end
$var wire 1 $ enable_i $end
$var wire 1 ( rst_i $end
$var wire 1 # write_i $end
$var wire 27 v" addr [26:0] $end
$var reg 4 w" count [3:0] $end
$var reg 256 x" data [255:0] $end
$var reg 2 y" state [1:0] $end
$upscope $end
$upscope $end
$enddefinitions $end
#0
$dumpvars
b0 y"
bx x"
b0 w"
b0 v"
bx u"
b0 t"
b0 s"
b10 r"
b10000 q"
b0 p"
0o"
0n"
b0 m"
b1000000000000000000000000 l"
bx k"
b0 j"
b0 i"
0h"
bx g"
b0 f"
0e"
0d"
bx c"
0b"
bx a"
b1000000000000000000000000 `"
b0 _"
b0 ^"
b0 ]"
0\"
b0 ["
bx Z"
bx Y"
b0 X"
b0 W"
0V"
b0 U"
0T"
0S"
b0 R"
0Q"
bx P"
b0 O"
b0 N"
0M"
b0 L"
0K"
0J"
bx I"
bx H"
b0 G"
b0 F"
b0 E"
b0 D"
b0 C"
b100 B"
b100 A"
b0 @"
b100 ?"
b0 >"
b0 ="
b0 <"
b0 ;"
b0 :"
b0 9"
b0 8"
b0 7"
b0 6"
b0 5"
b0 4"
b0 3"
b0 2"
b0 1"
b0 0"
b0 /"
b0 ."
b0 -"
0,"
b0 +"
bx *"
b0 )"
b0 ("
b0 '"
bx &"
b0 %"
b0 $"
b0 #"
b0 ""
0!"
bx ~
bx }
b0 |
b0 {
0z
b0 y
bx x
b0 w
b0 v
b0 u
b0 t
b0 s
b0 r
b0 q
0p
b0 o
b0 n
b0 m
b0 l
bx k
bx j
b0 i
b0 h
b0 g
0f
1e
b0 d
b0 c
b0 b
b0 a
b0 `
b0 _
b0 ^
b0 ]
0\
b0 [
0Z
b0 Y
0X
0W
0V
b0 U
b0 T
b0 S
0R
0Q
0P
0O
b0 N
0M
b0 L
0K
0J
0I
0H
0G
0F
b0 E
0D
b0 C
b0 B
b0 A
b0 @
b0 ?
b100 >
b100 =
b110 <
b0 ;
b0 :
b0 9
b110 8
b0 7
b0 6
b0 5
bx 4
b0 3
bx 2
bx 1
bx 0
bx /
b0 .
bx -
bx ,
x+
bx *
0)
1(
0'
b0 &
b0 %
0$
0#
0"
bx !
$end
#12
1!"
b0 k
b0 ~
b0 I"
b0 j
b0 }
b0 H"
b101 2
b11 1
b10 0
b10010000000011 x
b10010000000011 &"
b1000000000 /
1)
0(
#25
1H
1J
1K
1F
b11 C
b10 h
b1000 n
b11 #"
b10000000010010010000011 x
b10000000010010010000011 &"
b1000 A"
b1000 B"
b10010000000011 |
b10010000000011 ""
bx ."
bx ="
b1000 >
b1000 ?"
b100 ?
b100 y
b100 '"
b100 C"
b1 .
0+
1'
#50
0'
#75
b1000 @
b100 i
b100 %"
b100 $"
b11 8
b11 <
b100 G"
b100 c
b100 l
b1001 n
b100000000010010100000011 x
b100000000010010100000011 &"
b1100 A"
b1100 B"
b1000 N
b1000 b
b1000 q
b10 :
b10 v
1R
1O
1M
1p
b10000000010010010000011 |
b10000000010010010000011 ""
b1100 A
b1100 @"
b100 B
b100 {
b1100 >
b1100 ?"
b1000 ?
b1000 y
b1000 '"
b1000 C"
b10 .
1'
#100
0'
#125
b10000 @
b1000 i
b1000 %"
b1000 $"
b100 9
b100 L
1Q
b1000 G"
b1000 c
b1000 l
b1010 n
b100 6
b100 6"
1K"
1Q"
b110000000010010110000011 x
b110000000010010110000011 &"
b10000 A"
b10000 B"
b100000000010010100000011 |
b100000000010010100000011 ""
b11000 A
b11000 @"
b1000 B
b1000 {
b1001 N
b1001 b
b1001 q
b100 ^
b100 s
b100 w
b100 4"
b1000 Y
b1000 [
b1000 )"
1V
1X
1Z
b10000 >
b10000 ?"
b1100 ?
b1100 y
b1100 '"
b1100 C"
b11 .
1'
#150
0'
#175
b100 f"
b100 .
1+
1'
#200
0'
#225
b1 f"
1$
1d"
b101 .
1'
#250
0'
#275
b1 w"
b1 y"
b110 .
1'
#300
0'
#325
b10 w"
b111 .
1'
#350
0'
#375
b11 w"
b1000 .
1'
#400
0'
#425
b100 w"
b1001 .
1'
#450
0'
#475
b101 w"
b1010 .
1'
#500
0'
#525
b110 w"
b1011 .
1'
#550
0'
#575
b111 w"
b1100 .
1'
#600
0'
#625
b1000 w"
b1101 .
1'
#650
0'
#675
1"
b1001 w"
b1110 .
1'
#700
0'
#725
0"
1M"
b11101110111011101111111111111111 *"
b11101110111011101111111111111111 P"
b11101110111011101111111111111111 c"
b0 w"
b0 y"
b10 f"
1b"
0$
0d"
b100010001000100100010001000100011001100110011010001000100010001010101010101010110011001100110011101110111011110001000100010001001100110011001101010101010101010111011101110111100110011001100110111011101110111101110111011101111111111111111 Y"
b100010001000100100010001000100011001100110011010001000100010001010101010101010110011001100110011101110111011110001000100010001001100110011001101010101010101010111011101110111100110011001100110111011101110111101110111011101111111111111111 a"
b100010001000100100010001000100011001100110011010001000100010001010101010101010110011001100110011101110111011110001000100010001001100110011001101010101010101010111011101110111100110011001100110111011101110111101110111011101111111111111111 k"
b100010001000100100010001000100011001100110011010001000100010001010101010101010110011001100110011101110111011110001000100010001001100110011001101010101010101010111011101110111100110011001100110111011101110111101110111011101111111111111111 !
b100010001000100100010001000100011001100110011010001000100010001010101010101010110011001100110011101110111011110001000100010001001100110011001101010101010101010111011101110111100110011001100110111011101110111101110111011101111111111111111 4
b100010001000100100010001000100011001100110011010001000100010001010101010101010110011001100110011101110111011110001000100010001001100110011001101010101010101010111011101110111100110011001100110111011101110111101110111011101111111111111111 Z"
b100010001000100100010001000100011001100110011010001000100010001010101010101010110011001100110011101110111011110001000100010001001100110011001101010101010101010111011101110111100110011001100110111011101110111101110111011101111111111111111 u"
b100010001000100100010001000100011001100110011010001000100010001010101010101010110011001100110011101110111011110001000100010001001100110011001101010101010101010111011101110111100110011001100110111011101110111101110111011101111111111111111 x"
b1111 .
1'
#750
0'
#775
0Q
1V"
1T"
bx a"
bx k"
b1100000000000000000000000 W"
b1100000000000000000000000 p"
b100010001000100100010001000100011001100110011010001000100010001010101010101010110011001100110011101110111011110001000100010001001100110011001101010101010101010111011101110111100110011001100110111011101110111101110111011101111111111111111 %
b100010001000100100010001000100011001100110011010001000100010001010101010101010110011001100110011101110111011110001000100010001001100110011001101010101010101010111011101110111100110011001100110111011101110111101110111011101111111111111111 3
b100010001000100100010001000100011001100110011010001000100010001010101010101010110011001100110011101110111011110001000100010001001100110011001101010101010101010111011101110111100110011001100110111011101110111101110111011101111111111111111 R"
b100010001000100100010001000100011001100110011010001000100010001010101010101010110011001100110011101110111011110001000100010001001100110011001101010101010101010111011101110111100110011001100110111011101110111101110111011101111111111111111 t"
b100010001000100100010001000100011001100110011010001000100010001010101010101010110011001100110011101110111011110001000100010001001100110011001101010101010101010111011101110111100110011001100110111011101110111101110111011101111111111111111 X"
b100010001000100100010001000100011001100110011010001000100010001010101010101010110011001100110011101110111011110001000100010001001100110011001101010101010101010111011101110111100110011001100110111011101110111101110111011101111111111111111 m"
1\"
1n"
0M"
b0 f"
0b"
b10000 .
1'
#800
0'
#825
1!"
b11001100110011001101110111011101 *"
b11001100110011001101110111011101 P"
b11001100110011001101110111011101 c"
b11000 @
b1100 i
b1100 %"
b1100 $"
b0 j
b0 }
b0 H"
b1000 9
b1000 L
b100000 i"
b1100 G"
b1100 c
b1100 l
b1011 n
b1000 6
b1000 6"
b11101110111011101111111111111111 S
b11101110111011101111111111111111 5"
b11101110111011101111111111111111 ;"
b100 ^"
b11101110111011101111111111111111 2"
b11101110111011101111111111111111 :"
b11101110111011101111111111111111 >"
b11101110111011101111111111111111 E"
b1 a
b1 9"
b1000000000010011000000011 x
b1000000000010011000000011 &"
b10100 A"
b10100 B"
b110000000010010110000011 |
b110000000010010110000011 ""
b100100 A
b100100 @"
b1100 B
b1100 {
b1010 N
b1010 b
b1010 q
b1000 ^
b1000 s
b1000 w
b1000 4"
b1001 Y
b1001 [
b1001 )"
b100 T
b100 ("
b100 0"
b100 8"
b100 N"
b1000 ]
b1000 -"
b1000 D"
b11101110111011101111111111111111 ."
b11101110111011101111111111111111 ="
1,"
1\
b10100 >
b10100 ?"
b10000 ?
b10000 y
b10000 '"
b10000 C"
b10001 .
0+
1'
#850
0'
#875
b10101010101010101011101110111011 *"
b10101010101010101011101110111011 P"
b10101010101010101011101110111011 c"
b100000 @
b10000 i
b10000 %"
b10000 $"
b1000000 i"
b1100 9
b1100 L
b11001100110011001101110111011101 2"
b11001100110011001101110111011101 :"
b11001100110011001101110111011101 >"
b11001100110011001101110111011101 E"
b0 S
b0 5"
b0 ;"
b1000 ^"
b0 a
b0 9"
b1100 6
b1100 6"
b10000 G"
b10000 c
b10000 l
b1100 n
b1010000000010011010000011 x
b1010000000010011010000011 &"
b11000 A"
b11000 B"
b1001 ]
b1001 -"
b1001 D"
b11001100110011001101110111011101 ."
b11001100110011001101110111011101 ="
b100 +"
b100 <"
b1010 Y
b1010 [
b1010 )"
b11101110111011101111111111111111 U
b11101110111011101111111111111111 O"
b1000 T
b1000 ("
b1000 0"
b1000 8"
b1000 N"
b1011 N
b1011 b
b1011 q
b1100 ^
b1100 s
b1100 w
b1100 4"
b1000000000010011000000011 |
b1000000000010011000000011 ""
b110000 A
b110000 @"
b10000 B
b10000 {
b11000 >
b11000 ?"
b10100 ?
b10100 y
b10100 '"
b10100 C"
b10010 .
1'
#900
0'
#925
b10001000100010001001100110011001 *"
b10001000100010001001100110011001 P"
b10001000100010001001100110011001 c"
b101000 @
b10100 i
b10100 %"
b10100 $"
b10000 9
b10000 L
b1100000 i"
b10100 G"
b10100 c
b10100 l
b1101 n
b10000 6
b10000 6"
b1100 ^"
b10101010101010101011101110111011 2"
b10101010101010101011101110111011 :"
b10101010101010101011101110111011 >"
b10101010101010101011101110111011 E"
b1100000000010011100000011 x
b1100000000010011100000011 &"
b11100 A"
b11100 B"
b1010000000010011010000011 |
b1010000000010011010000011 ""
b111100 A
b111100 @"
b10100 B
b10100 {
b1100 N
b1100 b
b1100 q
b10000 ^
b10000 s
b10000 w
b10000 4"
b1011 Y
b1011 [
b1011 )"
b0 U
b0 O"
b1100 T
b1100 ("
b1100 0"
b1100 8"
b1100 N"
b1010 ]
b1010 -"
b1010 D"
b10101010101010101011101110111011 ."
b10101010101010101011101110111011 ="
b1000 +"
b1000 <"
b11100 >
b11100 ?"
b11000 ?
b11000 y
b11000 '"
b11000 C"
b10011 .
1'
#950
0'
#975
b1100110011001100111011101110111 *"
b1100110011001100111011101110111 P"
b1100110011001100111011101110111 c"
b110000 @
b11000 i
b11000 %"
b11000 $"
b10000000 i"
b10100 9
b10100 L
b10001000100010001001100110011001 2"
b10001000100010001001100110011001 :"
b10001000100010001001100110011001 >"
b10001000100010001001100110011001 E"
b10000 ^"
b10100 6
b10100 6"
b11000 G"
b11000 c
b11000 l
b1110 n
b1110000000010011110000011 x
b1110000000010011110000011 &"
b100000 A"
b100000 B"
b1011 ]
b1011 -"
b1011 D"
b10001000100010001001100110011001 ."
b10001000100010001001100110011001 ="
b1100 +"
b1100 <"
b1100 Y
b1100 [
b1100 )"
b10000 T
b10000 ("
b10000 0"
b10000 8"
b10000 N"
b1101 N
b1101 b
b1101 q
b10100 ^
b10100 s
b10100 w
b10100 4"
b1100000000010011100000011 |
b1100000000010011100000011 ""
b1001000 A
b1001000 @"
b11000 B
b11000 {
b100000 >
b100000 ?"
b11100 ?
b11100 y
b11100 '"
b11100 C"
b10100 .
1'
#1000
0'
#1025
b1000100010001000101010101010101 *"
b1000100010001000101010101010101 P"
b1000100010001000101010101010101 c"
b111000 @
b11100 i
b11100 %"
b11100 $"
b11000 9
b11000 L
b10100000 i"
b11100 G"
b11100 c
b11100 l
b1111 n
b11000 6
b11000 6"
b10100 ^"
b1100110011001100111011101110111 2"
b1100110011001100111011101110111 :"
b1100110011001100111011101110111 >"
b1100110011001100111011101110111 E"
b1000101000000010000010011 x
b1000101000000010000010011 &"
b100100 A"
b100100 B"
b1110000000010011110000011 |
b1110000000010011110000011 ""
b1010100 A
b1010100 @"
b11100 B
b11100 {
b1110 N
b1110 b
b1110 q
b11000 ^
b11000 s
b11000 w
b11000 4"
b1101 Y
b1101 [
b1101 )"
b10100 T
b10100 ("
b10100 0"
b10100 8"
b10100 N"
b1100 ]
b1100 -"
b1100 D"
b1100110011001100111011101110111 ."
b1100110011001100111011101110111 ="
b10000 +"
b10000 <"
b100100 >
b100100 ?"
b100000 ?
b100000 y
b100000 '"
b100000 C"
b10101 .
1'
#1050
0'
#1075
0!"
b100010001000100011001100110011 *"
b100010001000100011001100110011 P"
b100010001000100011001100110011 c"
b100010 @
b11000000 i"
b11100 9
b11100 L
0H
0J
b11101110111011101111111111111111 k
b11101110111011101111111111111111 ~
b11101110111011101111111111111111 I"
b10001 i
b10001 %"
b10001 $"
b1000100010001000101010101010101 2"
b1000100010001000101010101010101 :"
b1000100010001000101010101010101 >"
b1000100010001000101010101010101 E"
b11000 ^"
b11100 6
b11100 6"
b10011 C
b1000 F"
b10001 G"
b1000 d
b10001 c
b0 h
b1000 m
b10001 l
b1000 n
b10011 #"
b1000101001000010010010011 x
b1000101001000010010010011 &"
b101000 A"
b101000 B"
b1101 ]
b1101 -"
b1101 D"
b1000100010001000101010101010101 ."
b1000100010001000101010101010101 ="
b10100 +"
b10100 <"
b1110 Y
b1110 [
b1110 )"
b11000 T
b11000 ("
b11000 0"
b11000 8"
b11000 N"
b1111 N
b1111 b
b1111 q
b11100 ^
b11100 s
b11100 w
b11100 4"
b1000101000000010000010011 |
b1000101000000010000010011 ""
b1000010 A
b1000010 @"
b100000 B
b100000 {
b101000 >
b101000 ?"
b100100 ?
b100100 y
b100100 '"
b100100 C"
b10110 .
1'
#1100
0'
#1125
b1000100010001 *"
b1000100010001 P"
b1000100010001 c"
b11001100110011001101110111011101 k
b11001100110011001101110111011101 ~
b11001100110011001101110111011101 I"
b11101110111011110000000000010000 9
b11101110111011110000000000010000 L
b11100000 i"
b1001 F"
b1001 d
b1001 m
b1001 n
b110 8
b110 <
b10001 6
b10001 6"
b11101110111011101111111111111111 7
b11101110111011101111111111111111 3"
b11100 ^"
b100010001000100011001100110011 2"
b100010001000100011001100110011 :"
b100010001000100011001100110011 >"
b100010001000100011001100110011 E"
b1000101010000010100010011 x
b1000101010000010100010011 &"
b101100 A"
b101100 B"
b1000101001000010010010011 |
b1000101001000010010010011 ""
b1000110 A
b1000110 @"
b100100 B
b100100 {
b1000 N
b1000 b
b1000 q
b10001 ^
b10001 s
b1000 _
b1000 r
b0 :
b0 v
b10001 w
b10001 4"
b11101110111011101111111111111111 t
b11101110111011101111111111111111 /"
0R
0O
b1111 Y
b1111 [
b1111 )"
b11100 T
b11100 ("
b11100 0"
b11100 8"
b11100 N"
b1110 ]
b1110 -"
b1110 D"
b100010001000100011001100110011 ."
b100010001000100011001100110011 ="
b11000 +"
b11000 <"
b101100 >
b101100 ?"
b101000 ?
b101000 y
b101000 '"
b101000 C"
b10111 .
1'
#1150
0'
#1175
0V"
0T"
b100010001000100100010001000100011001100110011010001000100010001010101010101010110011001100110011101110111011110001000100010001001100110011001101010101010101010111011101110111100110011001100110111011101110111101110111011101111111111111111 a"
b100010001000100100010001000100011001100110011010001000100010001010101010101010110011001100110011101110111011110001000100010001001100110011001101010101010101010111011101110111100110011001100110111011101110111101110111011101111111111111111 k"
b0 W"
b0 p"
b0 %
b0 3
b0 R"
b0 t"
b0 X"
b0 m"
0\"
0n"
b1100110011001100111011101110111 *"
b1100110011001100111011101110111 P"
b1100110011001100111011101110111 c"
b111011101110111100000000000 v"
b11101110111011110000000000000000 &
b11101110111011110000000000000000 5
b11101110111011110000000000000000 ["
b11101110111011110000000000000000 s"
b10000000 i"
b11001100110011001101110111101110 9
b11001100110011001101110111101110 L
b10101010101010101011101110111011 k
b10101010101010101011101110111011 ~
b10101010101010101011101110111011 I"
b1000100010001 2"
b1000100010001 :"
b1000100010001 >"
b1000100010001 E"
b1011101110111011110000000 `"
b1011101110111011110000000 l"
b11101110111011110000000 ]"
b10000 ^"
0K"
0Q"
b11001100110011001101110111011101 7
b11001100110011001101110111011101 3"
b1010 F"
b1010 d
b1010 m
b1010 n
b1000101011000010110010011 x
b1000101011000010110010011 &"
b110000 A"
b110000 B"
b1111 ]
b1111 -"
b1111 D"
b1000100010001 ."
b1000100010001 ="
b11100 +"
b11100 <"
b1000 Y
b1000 [
b1000 )"
b11101110111011110000000000010000 T
b11101110111011110000000000010000 ("
b11101110111011110000000000010000 0"
b11101110111011110000000000010000 8"
b11101110111011110000000000010000 N"
0V
0X
b1001 N
b1001 b
b1001 q
b1001 _
b1001 r
b11001100110011001101110111011101 t
b11001100110011001101110111011101 /"
b1000101010000010100010011 |
b1000101010000010100010011 ""
b1001010 A
b1001010 @"
b101000 B
b101000 {
b110000 >
b110000 ?"
b101100 ?
b101100 y
b101100 '"
b101100 C"
b11000 .
1'
#1200
0'
#1225
b1110111011101111000100010001000 *"
b1110111011101111000100010001000 P"
b1110111011101111000100010001000 c"
b110011001100110011011101111 v"
b10001000100010001001100110011001 k
b10001000100010001001100110011001 ~
b10001000100010001001100110011001 I"
b10101010101010101011101111001100 9
b10101010101010101011101111001100 L
b11001100110011001101110111100000 &
b11001100110011001101110111100000 5
b11001100110011001101110111100000 ["
b11001100110011001101110111100000 s"
b1110000 i"
b1011 F"
b1011 d
b1011 m
b1011 n
b10101010101010101011101110111011 7
b10101010101010101011101110111011 3"
b1011001100110011001101110 `"
b1011001100110011001101110 l"
b11001100110011001101110 ]"
b1111 L"
b1111 j"
b1111 _"
b1110 ^"
b11101110111011110000000000010000 2"
b11101110111011110000000000010000 :"
b11101110111011110000000000010000 >"
b11101110111011110000000000010000 E"
b1000101100000011000010011 x
b1000101100000011000010011 &"
b110100 A"
b110100 B"
b1000101011000010110010011 |
b1000101011000010110010011 ""
b1001110 A
b1001110 @"
b101100 B
b101100 {
b1010 N
b1010 b
b1010 q
b1010 _
b1010 r
b10101010101010101011101110111011 t
b10101010101010101011101110111011 /"
b1001 Y
b1001 [
b1001 )"
b11001100110011001101110111101110 T
b11001100110011001101110111101110 ("
b11001100110011001101110111101110 0"
b11001100110011001101110111101110 8"
b11001100110011001101110111101110 N"
b1000 ]
b1000 -"
b1000 D"
b1100110011001100111011101110111 ."
b1100110011001100111011101110111 ="
b11101110111011110000000000010000 +"
b11101110111011110000000000010000 <"
0,"
b110100 >
b110100 ?"
b110000 ?
b110000 y
b110000 '"
b110000 C"
b11001 .
1'
#1250
0'
