CPU.vcd
$date
	Wed Dec 30 20:28:05 2020
$end
$version
	Icarus Verilog
$end
$timescale
	1s
$end
$scope module testbench $end
$var wire 256 ! mem_cpu_data [255:0] $end
$var wire 1 " mem_cpu_ack $end
$var wire 1 # cpu_mem_write $end
$var wire 1 $ cpu_mem_enable $end
$var wire 256 % cpu_mem_data [255:0] $end
$var wire 32 & cpu_mem_addr [31:0] $end
$var reg 1 ' Clk $end
$var reg 1 ( Reset $end
$var reg 1 ) Start $end
$var reg 27 * address [26:0] $end
$var reg 1 + flag $end
$var reg 4 , index [3:0] $end
$var reg 25 - tag [24:0] $end
$var integer 32 . counter [31:0] $end
$var integer 32 / i [31:0] $end
$var integer 32 0 j [31:0] $end
$var integer 32 1 outfile [31:0] $end
$var integer 32 2 outfile2 [31:0] $end
$scope module CPU $end
$var wire 1 ' clk_i $end
$var wire 1 ( rst_i $end
$var wire 1 ) start_i $end
$var wire 1 # mem_write_o $end
$var wire 1 $ mem_enable_o $end
$var wire 256 3 mem_data_o [255:0] $end
$var wire 256 4 mem_data_i [255:0] $end
$var wire 32 5 mem_addr_o [31:0] $end
$var wire 1 " mem_ack_i $end
$scope module ALU $end
$var wire 32 6 data2_i [31:0] $end
$var wire 32 7 data1_i [31:0] $end
$var wire 3 8 ALUCtrl_i [2:0] $end
$var reg 32 9 data_o [31:0] $end
$upscope $end
$scope module ALU_Control $end
$var wire 10 : funct_i [9:0] $end
$var wire 2 ; ALUOp_i [1:0] $end
$var reg 3 < ALUCtrl_o [2:0] $end
$upscope $end
$scope module Add_PC $end
$var wire 32 = data2_i [31:0] $end
$var wire 32 > data_o [31:0] $end
$var wire 32 ? data1_i [31:0] $end
$upscope $end
$scope module Add_PC_Branch $end
$var wire 32 @ data1_i [31:0] $end
$var wire 32 A data_o [31:0] $end
$var wire 32 B data2_i [31:0] $end
$upscope $end
$scope module Control $end
$var wire 7 C Op_i [6:0] $end
$var wire 1 D NoOp_i $end
$var reg 2 E ALUOp_o [1:0] $end
$var reg 1 F ALUSrc_o $end
$var reg 1 G Branch_o $end
$var reg 1 H MemRead_o $end
$var reg 1 I MemWrite_o $end
$var reg 1 J MemtoReg_o $end
$var reg 1 K RegWrite_o $end
$upscope $end
$scope module EXMEM $end
$var wire 32 L ALUResult_i [31:0] $end
$var wire 1 ' clk_i $end
$var wire 1 M RegWrite_i $end
$var wire 5 N RDaddr_i [4:0] $end
$var wire 1 O MemtoReg_i $end
$var wire 1 P MemWrite_i $end
$var wire 1 Q MemStall_i $end
$var wire 1 R MemRead_i $end
$var wire 32 S MUX_B_i [31:0] $end
$var reg 32 T ALUResult_o [31:0] $end
$var reg 32 U MUX_B_o [31:0] $end
$var reg 1 V MemRead_o $end
$var reg 1 W MemWrite_o $end
$var reg 1 X MemtoReg_o $end
$var reg 5 Y RDaddr_o [4:0] $end
$var reg 1 Z RegWrite_o $end
$upscope $end
$scope module Forward_Unit $end
$var wire 5 [ MemRd_i [4:0] $end
$var wire 1 Z MemRegWrite_i $end
$var wire 1 \ WBRegWrite_i $end
$var wire 5 ] WBRd_i [4:0] $end
$var wire 5 ^ EXRs2_i [4:0] $end
$var wire 5 _ EXRs1_i [4:0] $end
$var reg 2 ` ForwardA_o [1:0] $end
$var reg 2 a ForwardB_o [1:0] $end
$upscope $end
$scope module Hazard_Detection $end
$var wire 5 b data3_i [4:0] $end
$var wire 5 c data2_i [4:0] $end
$var wire 5 d data1_i [4:0] $end
$var wire 1 R MemRead_i $end
$var reg 1 D NoOp_o $end
$var reg 1 e PCWrite_o $end
$var reg 1 f Stall_o $end
$upscope $end
$scope module IDEX $end
$var wire 2 g ALUOp_i [1:0] $end
$var wire 1 F ALUSrc_i $end
$var wire 1 H MemRead_i $end
$var wire 1 I MemWrite_i $end
$var wire 1 J MemtoReg_i $end
$var wire 1 K RegWrite_i $end
$var wire 1 ' clk_i $end
$var wire 10 h funct_i [9:0] $end
$var wire 32 i imm_i [31:0] $end
$var wire 32 j data2_i [31:0] $end
$var wire 32 k data1_i [31:0] $end
$var wire 5 l RS2addr_i [4:0] $end
$var wire 5 m RS1addr_i [4:0] $end
$var wire 5 n RDaddr_i [4:0] $end
$var wire 1 Q MemStall_i $end
$var reg 2 o ALUOp_o [1:0] $end
$var reg 1 p ALUSrc_o $end
$var reg 1 R MemRead_o $end
$var reg 1 P MemWrite_o $end
$var reg 1 O MemtoReg_o $end
$var reg 5 q RDaddr_o [4:0] $end
$var reg 5 r RS1addr_o [4:0] $end
$var reg 5 s RS2addr_o [4:0] $end
$var reg 1 M RegWrite_o $end
$var reg 32 t data1_o [31:0] $end
$var reg 32 u data2_o [31:0] $end
$var reg 10 v funct_o [9:0] $end
$var reg 32 w imm_o [31:0] $end
$upscope $end
$scope module IFID $end
$var wire 1 f Stall_i $end
$var wire 1 ' clk_i $end
$var wire 32 x instr_i [31:0] $end
$var wire 32 y PC_i [31:0] $end
$var wire 1 Q MemStall_i $end
$var wire 1 z Flush_i $end
$var reg 32 { PC_o [31:0] $end
$var reg 32 | instr_o [31:0] $end
$upscope $end
$scope module If_Branch $end
$var wire 1 G Branch_i $end
$var wire 32 } data2_i [31:0] $end
$var wire 32 ~ data1_i [31:0] $end
$var reg 1 !" compare $end
$var reg 1 z data_o $end
$upscope $end
$scope module Imm_Gen $end
$var wire 32 "" data_i [31:0] $end
$var wire 7 #" opcode [6:0] $end
$var wire 12 $" imme [11:0] $end
$var wire 32 %" data_o [31:0] $end
$upscope $end
$scope module Instruction_Memory $end
$var wire 32 &" instr_o [31:0] $end
$var wire 32 '" addr_i [31:0] $end
$upscope $end
$scope module MEMWB $end
$var wire 32 (" ALUResult_i [31:0] $end
$var wire 1 X MemtoReg_i $end
$var wire 5 )" RDaddr_i [4:0] $end
$var wire 1 Z RegWrite_i $end
$var wire 1 ' clk_i $end
$var wire 32 *" ReadData_i [31:0] $end
$var wire 1 Q MemStall_i $end
$var reg 32 +" ALUResult_o [31:0] $end
$var reg 1 ," MemtoReg_o $end
$var reg 5 -" RDaddr_o [4:0] $end
$var reg 32 ." ReadData_o [31:0] $end
$var reg 1 \ RegWrite_o $end
$upscope $end
$scope module MUX_A $end
$var wire 32 /" data0_i [31:0] $end
$var wire 32 0" data2_i [31:0] $end
$var wire 2 1" forward_i [1:0] $end
$var wire 32 2" data1_i [31:0] $end
$var reg 32 3" data_o [31:0] $end
$upscope $end
$scope module MUX_ALUSrc $end
$var wire 32 4" data2_i [31:0] $end
$var wire 1 p select_i $end
$var wire 32 5" data1_i [31:0] $end
$var reg 32 6" data_o [31:0] $end
$upscope $end
$scope module MUX_B $end
$var wire 32 7" data0_i [31:0] $end
$var wire 32 8" data2_i [31:0] $end
$var wire 2 9" forward_i [1:0] $end
$var wire 32 :" data1_i [31:0] $end
$var reg 32 ;" data_o [31:0] $end
$upscope $end
$scope module MUX_Mem2Reg $end
$var wire 32 <" data1_i [31:0] $end
$var wire 32 =" data2_i [31:0] $end
$var wire 1 ," select_i $end
$var reg 32 >" data_o [31:0] $end
$upscope $end
$scope module MUX_PCSource $end
$var wire 32 ?" data1_i [31:0] $end
$var wire 32 @" data2_i [31:0] $end
$var wire 1 z select_i $end
$var reg 32 A" data_o [31:0] $end
$upscope $end
$scope module PC $end
$var wire 1 e PCWrite_i $end
$var wire 1 ' clk_i $end
$var wire 32 B" pc_i [31:0] $end
$var wire 1 ( rst_i $end
$var wire 1 ) start_i $end
$var wire 1 Q stall_i $end
$var reg 32 C" pc_o [31:0] $end
$upscope $end
$scope module Registers $end
$var wire 5 D" RDaddr_i [4:0] $end
$var wire 32 E" RDdata_i [31:0] $end
$var wire 5 F" RS1addr_i [4:0] $end
$var wire 5 G" RS2addr_i [4:0] $end
$var wire 1 \ RegWrite_i $end
$var wire 1 ' clk_i $end
$var wire 32 H" RS2data_o [31:0] $end
$var wire 32 I" RS1data_o [31:0] $end
$upscope $end
$scope module dcache $end
$var wire 1 J" cache_dirty $end
$var wire 1 K" cache_sram_enable $end
$var wire 4 L" cache_sram_index [3:0] $end
$var wire 1 M" cache_sram_write $end
$var wire 1 ' clk_i $end
$var wire 1 V cpu_MemRead_i $end
$var wire 1 W cpu_MemWrite_i $end
$var wire 32 N" cpu_addr_i [31:0] $end
$var wire 32 O" cpu_data_i [31:0] $end
$var wire 32 P" cpu_data_o [31:0] $end
$var wire 1 Q" cpu_req $end
$var wire 1 Q cpu_stall_o $end
$var wire 256 R" mem_data_o [255:0] $end
$var wire 1 $ mem_enable_o $end
$var wire 1 # mem_write_o $end
$var wire 1 ( rst_i $end
$var wire 1 S" write_hit $end
$var wire 1 T" sram_valid $end
$var wire 22 U" sram_tag [21:0] $end
$var wire 1 V" sram_dirty $end
$var wire 25 W" sram_cache_tag [24:0] $end
$var wire 256 X" sram_cache_data [255:0] $end
$var wire 256 Y" r_hit_data [255:0] $end
$var wire 256 Z" mem_data_i [255:0] $end
$var wire 32 [" mem_addr_o [31:0] $end
$var wire 1 " mem_ack_i $end
$var wire 1 \" hit $end
$var wire 23 ]" cpu_tag [22:0] $end
$var wire 5 ^" cpu_offset [4:0] $end
$var wire 4 _" cpu_index [3:0] $end
$var wire 25 `" cache_sram_tag [24:0] $end
$var wire 256 a" cache_sram_data [255:0] $end
$var reg 1 b" cache_write $end
$var reg 32 c" cpu_data [31:0] $end
$var reg 1 d" mem_enable $end
$var reg 1 e" mem_write $end
$var reg 3 f" state [2:0] $end
$var reg 256 g" w_hit_data [255:0] $end
$var reg 1 h" write_back $end
$var integer 32 i" start [31:0] $end
$scope module dcache_sram $end
$var wire 4 j" addr_i [3:0] $end
$var wire 1 ' clk_i $end
$var wire 256 k" data_i [255:0] $end
$var wire 1 K" enable_i $end
$var wire 1 ( rst_i $end
$var wire 25 l" tag_i [24:0] $end
$var wire 1 M" write_i $end
$var reg 256 m" data_o [255:0] $end
$var reg 1 \" hit_o $end
$var reg 25 n" tag_o [24:0] $end
$var integer 32 o" i [31:0] $end
$var integer 32 p" j [31:0] $end
$upscope $end
$upscope $end
$upscope $end
$scope module Data_Memory $end
$var wire 1 " ack_o $end
$var wire 32 q" addr_i [31:0] $end
$var wire 1 ' clk_i $end
$var wire 256 r" data_i [255:0] $end
$var wire 256 s" data_o [255:0] $end
$var wire 1 $ enable_i $end
$var wire 1 ( rst_i $end
$var wire 1 # write_i $end
$var wire 27 t" addr [26:0] $end
$var reg 4 u" count [3:0] $end
$var reg 256 v" data [255:0] $end
$var reg 2 w" state [1:0] $end
$upscope $end
$upscope $end
$enddefinitions $end
#0
$dumpvars
b0 w"
bx v"
b0 u"
b0 t"
bx s"
b0 r"
b0 q"
b10 p"
b10000 o"
b0 n"
b0 m"
b1000000000000000000000000 l"
bx k"
b0 j"
b0 i"
0h"
bx g"
b0 f"
0e"
0d"
bx c"
0b"
bx a"
b1000000000000000000000000 `"
b0 _"
b0 ^"
b0 ]"
0\"
b0 ["
bx Z"
bx Y"
b0 X"
b0 W"
0V"
b0 U"
0T"
0S"
b0 R"
0Q"
bx P"
b0 O"
b0 N"
0M"
b0 L"
0K"
0J"
bx I"
bx H"
b0 G"
b0 F"
b0 E"
b0 D"
b0 C"
b100 B"
b100 A"
b0 @"
b100 ?"
b0 >"
b0 ="
b0 <"
b0 ;"
b0 :"
b0 9"
b0 8"
b0 7"
b0 6"
b0 5"
b0 4"
b0 3"
b0 2"
b0 1"
b0 0"
b0 /"
b0 ."
b0 -"
0,"
b0 +"
bx *"
b0 )"
b0 ("
b0 '"
bx &"
b0 %"
b0 $"
b0 #"
b0 ""
0!"
bx ~
bx }
b0 |
b0 {
0z
b0 y
bx x
b0 w
b0 v
b0 u
b0 t
b0 s
b0 r
b0 q
0p
b0 o
b0 n
b0 m
b0 l
bx k
bx j
b0 i
b0 h
b0 g
0f
1e
b0 d
b0 c
b0 b
b0 a
b0 `
b0 _
b0 ^
b0 ]
0\
b0 [
0Z
b0 Y
0X
0W
0V
b0 U
b0 T
b0 S
0R
0Q
0P
0O
b0 N
0M
b0 L
0K
0J
0I
0H
0G
0F
b0 E
0D
b0 C
b0 B
b0 A
b0 @
b0 ?
b100 >
b100 =
b110 <
b0 ;
b0 :
b0 9
b110 8
b0 7
b0 6
b0 5
bx 4
b0 3
bx 2
bx 1
bx 0
bx /
b0 .
bx -
bx ,
x+
bx *
0)
1(
0'
b0 &
b0 %
0$
0#
0"
bx !
$end
#12
1!"
b0 k
b0 ~
b0 I"
b0 j
b0 }
b0 H"
b101 2
b11 1
b10 0
b1000000000000111010010011 x
b1000000000000111010010011 &"
b1000000000 /
1)
0(
#25
b100000 A
b100000 @"
b100000 @
1K
1F
b10000 i
b10000 %"
b10000 $"
b10011 C
b10000 G"
b10000 c
b10000 l
b11101 n
b10011 #"
b11110111101000111100110011 x
b11110111101000111100110011 &"
b1000 A"
b1000 B"
b1000000000000111010010011 |
b1000000000000111010010011 ""
bx ."
bx ="
b1000 >
b1000 ?"
b100 ?
b100 y
b100 '"
b100 C"
b1 .
0+
1'
#50
0'
#75
b111110 @
b10000 9
b10000 L
0F
b10 E
b10 g
b11111 i
b11111 %"
b11111 $"
b10000 6
b10000 6"
b110011 C
b11101 F"
b11101 G"
b11101 d
b11101 c
b1000 h
b11101 m
b11101 l
b11110 n
b110011 #"
b11110111110000111010110011 x
b11110111110000111010110011 &"
b1100 A"
b1100 B"
b11101 N
b11101 b
b11101 q
b10000 ^
b10000 s
b10000 w
b10000 4"
1M
1p
b11110111101000111100110011 |
b11110111101000111100110011 ""
b1000010 A
b1000010 @"
b100 B
b100 {
b1100 >
b1100 ?"
b1000 ?
b1000 y
b1000 '"
b1000 C"
b10 .
1'
#100
0'
#125
b100000111100 @
b10000011110 i
b10000011110 %"
b10000011110 $"
b100000000 9
b100000000 L
b10000000 i"
b11110 F"
b11110 d
b11110 m
b11101 n
b101 8
b101 <
b10000 7
b10000 3"
b10000 S
b10000 5"
b10000 ;"
b10000 ^"
b10 a
b10 9"
b10 `
b10 1"
b1110111011000000000010000010011 x
b1110111011000000000010000010011 &"
b10000 A"
b10000 B"
b11110111110000111010110011 |
b11110111110000111010110011 ""
b100001000100 A
b100001000100 @"
b1000 B
b1000 {
b11110 N
b11110 b
b11110 q
b11101 ^
b11101 s
b11101 _
b11101 r
b1000 :
b1000 v
b11111 w
b11111 4"
0p
b10 ;
b10 o
b11101 Y
b11101 [
b11101 )"
b10000 T
b10000 ("
b10000 0"
b10000 8"
b10000 N"
1Z
b10000 >
b10000 ?"
b1100 ?
b1100 y
b1100 '"
b1100 C"
b11 .
1'
#150
0'
#175
b1000 t"
b111011101100 @
b1000000000000 9
b1000000000000 L
b10000 6
b10000 6"
b100000000 &
b100000000 5
b100000000 ["
b100000000 q"
b0 i"
1F
b0 E
b0 g
b11101110110 i
b11101110110 %"
b11101110110 $"
b10000 2"
b10000 :"
b10000 >"
b10000 E"
b100000000 7
b100000000 3"
b10000 S
b10000 5"
b10000 ;"
b1000 L"
b1000 j"
b1000 _"
b0 ^"
b1 a
b1 9"
b10 `
b10 1"
b10011 C
b0 F"
b10110 G"
b0 d
b10110 c
b111011000 h
b0 m
b10110 l
b1000 n
b10011 #"
b11110101000000010000110011 x
b11110101000000010000110011 &"
b10100 A"
b10100 B"
b11101 ]
b11101 -"
b11101 D"
b10000 +"
b10000 <"
1\
b11110 Y
b11110 [
b11110 )"
b10000 U
b10000 O"
b100000000 T
b100000000 ("
b100000000 0"
b100000000 8"
b100000000 N"
b11101 N
b11101 b
b11101 q
b11110 _
b11110 r
b10000011110 w
b10000011110 4"
b1110111011000000000010000010011 |
b1110111011000000000010000010011 ""
b111011111000 A
b111011111000 @"
b1100 B
b1100 {
b10100 >
b10100 ?"
b10000 ?
b10000 y
b10000 '"
b10000 C"
b100 .
1'
#200
0'
#225
0!"
b10000000 t"
b101000 @
0F
b10 E
b10 g
b10000 j
b10000 }
b10000 H"
b10100 i
b10100 %"
b10100 $"
b11101110110 9
b11101110110 L
b1000000000000 &
b1000000000000 5
b1000000000000 ["
b1000000000000 q"
b110011 C
b1000 F"
b11101 G"
b1000 d
b11101 c
b1000 h
b1000 m
b11101 l
b110011 #"
b11101110110 6
b11101110110 6"
b110 8
b110 <
b0 7
b0 3"
b0 S
b0 5"
b0 ;"
b1000000000000000000001000 `"
b1000000000000000000001000 l"
b1000 ]"
b0 L"
b0 j"
b0 _"
b0 a
b0 9"
b0 `
b0 1"
b100000000 2"
b100000000 :"
b100000000 >"
b100000000 E"
b1100101010101000000010000010011 x
b1100101010101000000010000010011 &"
b11000 A"
b11000 B"
b11110101000000010000110011 |
b11110101000000010000110011 ""
b111000 A
b111000 @"
b10000 B
b10000 {
b1000 N
b1000 b
b1000 q
b10110 ^
b10110 s
b0 _
b0 r
b111011000 :
b111011000 v
b11101110110 w
b11101110110 4"
1p
b0 ;
b0 o
b11101 Y
b11101 [
b11101 )"
b1000000000000 T
b1000000000000 ("
b1000000000000 0"
b1000000000000 8"
b1000000000000 N"
b11110 ]
b11110 -"
b11110 D"
b100000000 +"
b100000000 <"
b11000 >
b11000 ?"
b10100 ?
b10100 y
b10100 '"
b10100 C"
b101 .
1'
#250
0'
#275
1!"
b111011 t"
b110010101010 @
b11101100000 &
b11101100000 5
b11101100000 ["
b11101100000 q"
b10110000 i"
b11101110110000000000000 9
b11101110110000000000000 L
1F
b0 E
b0 g
b0 j
b0 }
b0 H"
b11001010101 i
b11001010101 %"
b11001010101 $"
b1000000000000 2"
b1000000000000 :"
b1000000000000 >"
b1000000000000 E"
b11101110110 7
b11101110110 3"
b1000000000000000000000011 `"
b1000000000000000000000011 l"
b11 ]"
b1011 L"
b1011 j"
b1011 _"
b10110 ^"
b1 a
b1 9"
b10 `
b10 1"
b1000000000000 S
b1000000000000 5"
b1000000000000 ;"
b1000000000000 6
b1000000000000 6"
b101 8
b101 <
b10011 C
b10101 G"
b10101 c
b110010000 h
b10101 l
b10011 #"
b11111001000000010000110011 x
b11111001000000010000110011 &"
b11100 A"
b11100 B"
b11101 ]
b11101 -"
b11101 D"
b1000000000000 +"
b1000000000000 <"
b1000 Y
b1000 [
b1000 )"
b0 U
b0 O"
b11101110110 T
b11101110110 ("
b11101110110 0"
b11101110110 8"
b11101110110 N"
b11101 ^
b11101 s
b1000 _
b1000 r
b1000 :
b1000 v
b10100 w
b10100 4"
b10000 u
b10000 7"
0p
b10 ;
b10 o
b1100101010101000000010000010011 |
b1100101010101000000010000010011 ""
b110010111110 A
b110010111110 @"
b10100 B
b10100 {
b11100 >
b11100 ?"
b11000 ?
b11000 y
b11000 '"
b11000 C"
b110 .
1'
#300
0'
#325
0!"
b111011101100000000 t"
b101000 @
b11101110110 k
b11101110110 ~
b11101110110 I"
0F
b10 E
b10 g
b100000000 j
b100000000 }
b100000000 H"
b10100 i
b10100 %"
b10100 $"
b11101110110011001010101 9
b11101110110011001010101 L
b11101110110000000000000 &
b11101110110000000000000 5
b11101110110000000000000 ["
b11101110110000000000000 q"
b0 i"
b110011 C
b11110 G"
b11110 c
b1000 h
b11110 l
b110011 #"
b11001010101 6
b11001010101 6"
b110 8
b110 <
b11101110110000000000000 7
b11101110110000000000000 3"
b0 S
b0 5"
b0 ;"
b1000000000011101110110000 `"
b1000000000011101110110000 l"
b11101110110000 ]"
b0 L"
b0 j"
b0 _"
b0 ^"
b0 a
b0 9"
b10 `
b10 1"
b11101110110 2"
b11101110110 :"
b11101110110 >"
b11101110110 E"
b100010001000000010000010011 x
b100010001000000010000010011 &"
b100000 A"
b100000 B"
b11111001000000010000110011 |
b11111001000000010000110011 ""
b1000000 A
b1000000 @"
b11000 B
b11000 {
b10101 ^
b10101 s
b110010000 :
b110010000 v
b11001010101 w
b11001010101 4"
b0 u
b0 7"
1p
b0 ;
b0 o
b1000000000000 U
b1000000000000 O"
b11101110110000000000000 T
b11101110110000000000000 ("
b11101110110000000000000 0"
b11101110110000000000000 8"
b11101110110000000000000 N"
b1000 ]
b1000 -"
b1000 D"
b11101110110 +"
b11101110110 <"
b100000 >
b100000 ?"
b11100 ?
b11100 y
b11100 '"
b11100 C"
b111 .
1'
#350
0'
#375
b111011101100110010 t"
b10001000 @
b11101110110000000000000 k
b11101110110000000000000 ~
b11101110110000000000000 I"
b11101110110011001000000 &
b11101110110011001000000 5
b11101110110011001000000 ["
b11101110110011001000000 q"
b10101000 i"
b1110111011001100101010100000000 9
b1110111011001100101010100000000 L
1F
b0 E
b0 g
b0 j
b0 }
b0 H"
b1000100 i
b1000100 %"
b1000100 $"
b11101110110000000000000 2"
b11101110110000000000000 :"
b11101110110000000000000 >"
b11101110110000000000000 E"
b1000000000011101110110011 `"
b1000000000011101110110011 l"
b11101110110011 ]"
b10 L"
b10 j"
b10 _"
b10101 ^"
b10 `
b10 1"
b100000000 S
b100000000 5"
b100000000 ;"
b11101110110011001010101 7
b11101110110011001010101 3"
b100000000 6
b100000000 6"
b101 8
b101 <
b10011 C
b100 G"
b100 c
b10000 h
b100 l
b10011 #"
b1000100000000000010010010011 x
b1000100000000000010010010011 &"
b100100 A"
b100100 B"
b11101110110000000000000 +"
b11101110110000000000000 <"
b0 U
b0 O"
b11101110110011001010101 T
b11101110110011001010101 ("
b11101110110011001010101 0"
b11101110110011001010101 8"
b11101110110011001010101 N"
b11110 ^
b11110 s
b1000 :
b1000 v
b10100 w
b10100 4"
b100000000 u
b100000000 7"
b11101110110 t
b11101110110 /"
0p
b10 ;
b10 o
b100010001000000010000010011 |
b100010001000000010000010011 ""
b10100100 A
b10100100 @"
b11100 B
b11100 {
b100100 >
b100100 ?"
b100000 ?
b100000 y
b100000 '"
b100000 C"
b1000 .
1'
#400
0'
#425
b11101110110011001010101000 t"
b100010000 @
b11101110110011001010101 j
b11101110110011001010101 }
b11101110110011001010101 H"
b10001000 i
b10001000 %"
b10001000 $"
b1110111011001100101010101000100 9
b1110111011001100101010101000100 L
b1110111011001100101010100000000 &
b1110111011001100101010100000000 5
b1110111011001100101010100000000 ["
b1110111011001100101010100000000 q"
b0 i"
b0 k
b0 ~
b0 I"
b0 F"
b1000 G"
b0 d
b1000 c
b100000 h
b0 m
b1000 l
b1001 n
b10 `
b10 1"
b1000100 6
b1000100 6"
b110 8
b110 <
b1110111011001100101010100000000 7
b1110111011001100101010100000000 3"
b0 S
b0 5"
b0 ;"
b1001110111011001100101010 `"
b1001110111011001100101010 l"
b1110111011001100101010 ]"
b1000 L"
b1000 j"
b1000 _"
b0 ^"
b11101110110011001010101 2"
b11101110110011001010101 :"
b11101110110011001010101 >"
b11101110110011001010101 E"
b11111001001000010010110011 x
b11111001001000010010110011 &"
b101000 A"
b101000 B"
b1000100000000000010010010011 |
b1000100000000000010010010011 ""
b100110000 A
b100110000 @"
b100000 B
b100000 {
b100 ^
b100 s
b10000 :
b10000 v
b1000100 w
b1000100 4"
b0 u
b0 7"
b11101110110000000000000 t
b11101110110000000000000 /"
1p
b0 ;
b0 o
b100000000 U
b100000000 O"
b1110111011001100101010100000000 T
b1110111011001100101010100000000 ("
b1110111011001100101010100000000 0"
b1110111011001100101010100000000 8"
b1110111011001100101010100000000 N"
b11101110110011001010101 +"
b11101110110011001010101 <"
b101000 >
b101000 ?"
b100100 ?
b100100 y
b100100 '"
b100100 C"
b1001 .
1'
#450
0'
#475
b11101110110011001010101010 t"
b100000101000 @
b100000000 j
b100000000 }
b100000000 H"
b1110111011001100101010101000000 &
b1110111011001100101010101000000 5
b1110111011001100101010101000000 ["
b1110111011001100101010101000000 q"
b100000 i"
b10001000 9
b10001000 L
0F
b10 E
b10 g
b10000010100 i
b10000010100 %"
b10000010100 $"
b1110111011001100101010100000000 2"
b1110111011001100101010100000000 :"
b1110111011001100101010100000000 >"
b1110111011001100101010100000000 E"
b1010 L"
b1010 j"
b1010 _"
b100 ^"
b10 a
b10 9"
b0 `
b0 1"
b10001000 6
b10001000 6"
b1110111011001100101010101000100 S
b1110111011001100101010101000100 5"
b1110111011001100101010101000100 ;"
b0 7
b0 3"
b110011 C
b1001 F"
b11110 G"
b1001 d
b11110 c
b1000 h
b1001 m
b11110 l
b110011 #"
b1001100101001000010010010011 x
b1001100101001000010010010011 &"
b101100 A"
b101100 B"
b1110111011001100101010100000000 +"
b1110111011001100101010100000000 <"
b0 U
b0 O"
b1110111011001100101010101000100 T
b1110111011001100101010101000100 ("
b1110111011001100101010101000100 0"
b1110111011001100101010101000100 8"
b1110111011001100101010101000100 N"
b1001 N
b1001 b
b1001 q
b1000 ^
b1000 s
b0 _
b0 r
b100000 :
b100000 v
b10001000 w
b10001000 4"
b11101110110011001010101 u
b11101110110011001010101 7"
b0 t
b0 /"
b11111001001000010010110011 |
b11111001001000010010110011 ""
b100001001100 A
b100001001100 @"
b100100 B
b100100 {
b101100 >
b101100 ?"
b101000 ?
b101000 y
b101000 '"
b101000 C"
b1010 .
1'
#500
0'
#525
1!"
b100 t"
b100110010 @
b100000000 6
b100000000 6"
1F
b0 E
b0 g
b0 j
b0 }
b0 H"
b10011001 i
b10011001 %"
b10011001 $"
b1000100000000000 9
b1000100000000000 L
b10001000 7
b10001000 3"
b10000000 &
b10000000 5
b10000000 ["
b10000000 q"
b1000000 i"
b10011 C
b11001 G"
b11001 c
b100000 h
b11001 l
b10011 #"
b101 8
b101 <
b10 `
b10 1"
b0 a
b0 9"
b100000000 S
b100000000 5"
b100000000 ;"
b1000000000000000000000000 `"
b1000000000000000000000000 l"
b0 ]"
b100 L"
b100 j"
b100 _"
b1000 ^"
b1110111011001100101010101000100 2"
b1110111011001100101010101000100 :"
b1110111011001100101010101000100 >"
b1110111011001100101010101000100 E"
b11111001001000010010110011 x
b11111001001000010010110011 &"
b110000 A"
b110000 B"
b1001100101001000010010010011 |
b1001100101001000010010010011 ""
b101011010 A
b101011010 @"
b101000 B
b101000 {
b11110 ^
b11110 s
b1001 _
b1001 r
b1000 :
b1000 v
b10000010100 w
b10000010100 4"
b100000000 u
b100000000 7"
0p
b10 ;
b10 o
b1001 Y
b1001 [
b1001 )"
b1110111011001100101010101000100 U
b1110111011001100101010101000100 O"
b10001000 T
b10001000 ("
b10001000 0"
b10001000 8"
b10001000 N"
b1110111011001100101010101000100 +"
b1110111011001100101010101000100 <"
b110000 >
b110000 ?"
b101100 ?
b101100 y
b101100 '"
b101100 C"
b1011 .
1'
#550
0'
#575
0!"
b10001000000 t"
b10001000 k
b10001000 ~
b10001000 I"
b100000101000 @
b1000100000000000 &
b1000100000000000 5
b1000100000000000 ["
b1000100000000000 q"
b0 i"
b1000100010011001 9
b1000100010011001 L
0F
b10 E
b10 g
b100000000 j
b100000000 }
b100000000 H"
b10000010100 i
b10000010100 %"
b10000010100 $"
b10001000 2"
b10001000 :"
b10001000 >"
b10001000 E"
b1000100000000000 7
b1000100000000000 3"
b1000000000000000001000100 `"
b1000000000000000001000100 l"
b1000100 ]"
b0 L"
b0 j"
b0 _"
b0 ^"
b10 `
b10 1"
b0 S
b0 5"
b0 ;"
b10011001 6
b10011001 6"
b110 8
b110 <
b110011 C
b11110 G"
b11110 c
b1000 h
b11110 l
b110011 #"
b1010101001001000010010010011 x
b1010101001001000010010010011 &"
b110100 A"
b110100 B"
b1001 ]
b1001 -"
b1001 D"
b10001000 +"
b10001000 <"
b100000000 U
b100000000 O"
b1000100000000000 T
b1000100000000000 ("
b1000100000000000 0"
b1000100000000000 8"
b1000100000000000 N"
b11001 ^
b11001 s
b100000 :
b100000 v
b10011001 w
b10011001 4"
b0 u
b0 7"
1p
b0 ;
b0 o
b11111001001000010010110011 |
b11111001001000010010110011 ""
b100001010100 A
b100001010100 @"
b101100 B
b101100 {
b110100 >
b110100 ?"
b110000 ?
b110000 y
b110000 '"
b110000 C"
b1100 .
1'
#600
0'
#625
b10001000100 t"
b101010100 @
1F
b0 E
b0 g
b0 j
b0 }
b0 H"
b10101010 i
b10101010 %"
b10101010 $"
b100010001001100100000000 9
b100010001001100100000000 L
b1000100010000000 &
b1000100010000000 5
b1000100010000000 ["
b1000100010000000 q"
b11001000 i"
b1000100000000000 k
b1000100000000000 ~
b1000100000000000 I"
b10011 C
b1010 G"
b1010 c
b101000 h
b1010 l
b10011 #"
b10 `
b10 1"
b100000000 6
b100000000 6"
b101 8
b101 <
b1000100010011001 7
b1000100010011001 3"
b100000000 S
b100000000 5"
b100000000 ;"
b100 L"
b100 j"
b100 _"
b11001 ^"
b1000100000000000 2"
b1000100000000000 :"
b1000100000000000 >"
b1000100000000000 E"
b11111001001000010010110011 x
b11111001001000010010110011 &"
b111000 A"
b111000 B"
b1010101001001000010010010011 |
b1010101001001000010010010011 ""
b110000100 A
b110000100 @"
b110000 B
b110000 {
b11110 ^
b11110 s
b1000 :
b1000 v
b10000010100 w
b10000010100 4"
b100000000 u
b100000000 7"
b10001000 t
b10001000 /"
0p
b10 ;
b10 o
b0 U
b0 O"
b1000100010011001 T
b1000100010011001 ("
b1000100010011001 0"
b1000100010011001 8"
b1000100010011001 N"
b1000100000000000 +"
b1000100000000000 <"
b111000 >
b111000 ?"
b110100 ?
b110100 y
b110100 '"
b110100 C"
b1101 .
1'
#650
0'
